-------------------------------------------------------------------------------
Test set: lnino.generalisation.GeneralisationPolygonsTest
-------------------------------------------------------------------------------
Tests run: 2, Failures: 0, Errors: 0, Skipped: 0, Time elapsed: 0.01 sec - in lnino.generalisation.GeneralisationPolygonsTest
